module gitlab.com/mohammadanang/pollux

go 1.17

require (
	github.com/badoux/checkmail v1.2.1 // indirect
	github.com/dgrijalva/jwt-go v3.2.0+incompatible // indirect
	github.com/gorilla/mux v1.8.0 // indirect
	github.com/jinzhu/gorm v1.9.16 // indirect
	github.com/jinzhu/inflection v1.0.0 // indirect
	github.com/joho/godotenv v1.4.0 // indirect
	github.com/lib/pq v1.1.1 // indirect
	golang.org/x/crypto v0.0.0-20220214200702-86341886e292 // indirect
	gopkg.in/go-playground/assert.v1 v1.2.1 // indirect
)
